…
``` r
df_clim <-
  read_rds("inst/extdata/df_clim.rds") %>%
  filter(between(timestamp, ymd_h(2016010100), ymd_h(2016123123))) %>%
  change_interval("hour")
df_clim 
#> # A tibble: 8,784 x 14
#>    timestamp             G_dir G_dif   GHI I_str I_strd albedo     T_e
#>    <dttm>                <dbl> <dbl> <dbl> <dbl>  <dbl>  <dbl>   <dbl>
#>  1 2016-01-01 00:00:00 0.       0     0    -64.9   242.  0.240 -0.835 
#>  2 2016-01-01 01:00:00 0.       0     0    -62.0   245.  0.239 -0.626 
#>  3 2016-01-01 02:00:00 0.       0     0    -51.7   256.  0.239 -0.335 
#>  4 2016-01-01 03:00:00 0.       0     0    -43.6   266.  0.239 -0.0937
#>  5 2016-01-01 04:00:00 0.       0     0    -34.5   276.  0.239  0.170 
#>  6 2016-01-01 05:00:00 0.       0     0    -30.6   281.  0.239  0.396 
#>  7 2016-01-01 06:00:00 0.       0     0    -31.9   280.  0.239  0.572 
#>  8 2016-01-01 07:00:00 0.       0     0    -43.7   268.  0.239  0.669 
#>  9 2016-01-01 08:00:00 4.63e+0  2.21  2.36 -37.9   275.  0.239  0.816 
#> 10 2016-01-01 09:00:00 5.33e-4  9.53  9.53 -34.6   280.  0.239  1.000 
#> # ... with 8,774 more rows, and 6 more variables: T_dp <dbl>, T_gr <dbl>,
#> #   U10 <dbl>, tcc <dbl>, u10 <dbl>, v10 <dbl>
```
…
